module main

go 1.19

require github.com/gopxl/beep v1.4.0

require (
	github.com/ebitengine/oto/v3 v3.1.0 // indirect
	github.com/ebitengine/purego v0.5.0 // indirect
	github.com/hajimehoshi/go-mp3 v0.3.4 // indirect
	github.com/pkg/errors v0.9.1 // indirect
	golang.org/x/sys v0.12.0 // indirect
)
